id;group_name;default_active;account_id
1;reboot Home Technicien;false;1
2;wireless Sleek violet;true;2
3;b AI;false;1
4;synthesize Chypre Cotton;false;2
5;Steel navigating;false;1
6;Borders Borders;true;2
7;bricks-and-clicks;true;1
8;primary Picardie virtual;false;2
9;Limousin;false;2
10;wireless;false;2
