id;stock_symbol;stock_currency;stock_acquisition_date;stock_shares_number;stock_acquisition_price;stock_current_price;stock_current_date;stock_acquisition_currency_factor;stock_current_currency_factor;stock_price_at_acquisition_date;stock_type;last_stock_update;last_currency_update;stock_sell_date;stock_sell_price;stock_sell_currency_factor
1;aX;USD;2022-11-06;35394;25426;60455;2022-11-06;18406;78527;97445;STOCK;2022-11-06T09:37:05;2022-11-06T01:42:43;2022-11-06;22411;34048
2;Keyboard c;GBP;2022-11-06;91548;41713;3525;2022-11-06;85492;33018;73912;STOCK;2022-11-06T04:00:02;2022-11-06T03:26:23;2022-11-06;4449;15374
3;redefine C;USD;2022-11-06;71250;70312;641;2022-11-06;91131;190;85730;CRYPTO;2022-11-05T23:32:26;2022-11-06T10:18:42;2022-11-06;27671;20876
4;generate;EUR;2022-11-06;17323;90522;64806;2022-11-06;85945;60310;92371;CRYPTO;2022-11-06T03:44:41;2022-11-06T10:45:35;2022-11-06;34744;48357
5;Market Clo;EUR;2022-11-06;45193;22375;35123;2022-11-06;3201;97381;59776;CRYPTO;2022-11-05T21:45:08;2022-11-06T05:53:27;2022-11-05;90334;41575
6;Manat;USD;2022-11-06;67310;11676;41787;2022-11-06;66801;11847;81975;CRYPTO;2022-11-06T20:13:48;2022-11-05T22:52:21;2022-11-06;92170;21883
7;Account in;EUR;2022-11-06;73464;48046;91481;2022-11-06;13321;35474;8220;STOCK;2022-11-06T17:54:45;2022-11-06T14:26:08;2022-11-06;50192;51570
8;Hat Credit;USD;2022-11-06;5514;53288;92311;2022-11-05;16212;67807;5714;CRYPTO;2022-11-06T19:41:11;2022-11-06T07:04:05;2022-11-06;63801;51469
9;Ingenieur;USD;2022-11-05;26946;96652;49467;2022-11-06;27466;71861;34835;CRYPTO;2022-11-06T11:43:36;2022-11-06T15:24:52;2022-11-06;5498;53399
10;array Sala;EUR;2022-11-06;96782;30465;73053;2022-11-05;95660;69778;6219;STOCK;2022-11-06T06:42:35;2022-11-06T13:51:05;2022-11-05;58719;52427
