{
  "applications": ["myaccount21"],
  "changelogDate": "20220817101851",
  "dto": "mapstruct",
  "embedded": false,
  "entityTableName": "bank_account",
  "fields": [
    {
      "fieldName": "accountName",
      "fieldType": "String",
      "fieldValidateRules": ["required"]
    },
    {
      "fieldName": "accountBank",
      "fieldType": "String",
      "fieldValidateRules": ["required"]
    },
    {
      "fieldName": "initialAmount",
      "fieldType": "Float",
      "fieldValidateRules": ["required"]
    },
    {
      "fieldName": "archived",
      "fieldType": "Boolean",
      "fieldValidateRules": ["required"]
    },
    {
      "fieldName": "shortName",
      "fieldType": "String",
      "fieldValidateRules": ["maxlength"],
      "fieldValidateRulesMaxlength": "40"
    },
    {
      "fieldName": "accountType",
      "fieldType": "BankAccountType",
      "fieldValidateRules": ["required"],
      "fieldValues": "CURRENTACCOUNT,SAVINGSACCOUNT,STOCKPORTFOLIO, REAL_ESTATE"
    }
  ],
  "fluentMethods": true,
  "jpaMetamodelFiltering": true,
  "name": "BankAccount",
  "pagination": "no",
  "readOnly": false,
  "relationships": [
    {
      "otherEntityField": "nickName",
      "otherEntityName": "applicationUser",
      "relationshipName": "account",
      "relationshipType": "many-to-one",
      "relationshipValidateRules": "required"
    },
    {
      "otherEntityName": "stockPortfolioItem",
      "otherEntityRelationshipName": "bankAccount",
      "relationshipName": "stockPortfolioItem",
      "relationshipType": "one-to-many"
    },
    {
      "otherEntityName": "realEstateItem",
      "otherEntityRelationshipName": "bankAccount",
      "relationshipName": "realEstateItem",
      "relationshipType": "one-to-many"
    },
    {
      "otherEntityName": "accountGroup",
      "otherEntityRelationshipName": "bankAccount",
      "ownerSide": false,
      "relationshipName": "accountGroup",
      "relationshipType": "many-to-many"
    }
  ],
  "searchEngine": "elasticsearch",
  "service": "serviceClass"
}
